{
"layers":"5",
"neurons_by_layer":"100",
"dropout_input":"0.0",
"dropout_hidden":"0.0",
"num_epochs":"1000000",
"window_side":"11",
"alpha":"1.0",
"image_shape":["584","565","3"],
"learning_rate":"0.001",
"training_set":["21","22","23"],
"validation_set":["21","22","23","24","25","26","27","28","29","30","31","32","33","34","35","36","37","38","39","40"]
}
